…
# unnest features
hike <- hike_data %>%
  tidyr::unnest(features, keep_empty = TRUE)

# dogs allowed / not allowed
hike_dogs <- hike %>% 
  mutate(dogs_info = stringr::str_extract(features, "Dogs (not )?allowed(.+)?")) %>% 
  filter(!is.na(dogs_info))

# make sure there are no cases where both dogs are allowed and not
hike_dogs %>% dplyr::count(id) %>% arrange(desc(n))# for sure there is one weird case!!
```

    ## # A tibble: 1,299 x 2
    ##       id     n
    ##    <int> <int>
    ##  1  1618     2
    ##  2     1     1
    ##  3     2     1
    ##  4     3     1
    ##  5     4     1
    ##  6     5     1
    ##  7     6     1
    ##  8     7     1
    ##  9     8     1
    ## 10     9     1
    ## # … with 1,289 more rows
…
